material water
{
	receive_shadows on
	technique
	{
		pass
		{
			ambient 0.75 0.75 0.75
			diffuse 1 1 1 1
			
			texture_unit
			{
				texture water.png
				scroll_anim 0.03 0.01
			}
		}
	}
}
